{
            "URI": "https://ria.ru/hs_news/20100813/264856852.html",
            "title": "Росгидромет: жара начнет уходить из центра РФ на следующей неделе - РИА Новости, 13.08.2010",
            "publishing_date": "13.08.2010",
            "event_date": "13.08.2010",
            "previous_subevent_uri": null,
            "topic": "Жара отступит в ближайшие дни",
"next_subevent_uri": "https://ria.ru/eco/20100818/266536367.html" }
