{
            "URI": "https://ria.ru/moscow/20100625/250206496.html",
            "title": "Жертвами аномальной жары в Москве могут стать до 300 человек - РИА Новости, 25.06.2010",
            "publishing_date": "25.06.2010",
            "event_date": "25.06.2010",
            "previous_subevent_uri": "https://ria.ru/eco/20100601/241132737.html",
            "topic": "Предвидится сильная жара - возможны жертвы",
"next_subevent_uri": null }
