{
            "URI": "http://www.vesti.ru/doc.html?id=380852&tid=81353",
            "title": "Вести.Ru: Подмосковные торфяники стали лёгкой добычей огня",
            "publishing_date": "27.07.2010",
            "event_date": "27.07.2010",
            "previous_subevent_uri": "https://lenta.ru/news/2010/07/26/peatbog/",
            "topic": "О торфянниках",
"next_subevent_uri": "https://www.gazeta.ru/social/2010/07/29/3402531.shtml" }
