{
            "URI": "https://lenta.ru/news/2010/07/24/warmest/",
            "title": "Москва обновила температурный рекорд июля: Россия: Lenta.ru",
            "publishing_date": "24.07.2010",
            "event_date": "24.07.2010",
            "previous_subevent_uri": "https://ria.ru/society/20100722/257278233.html",
            "topic": "Абсолютный температурный рекорд",
"next_subevent_uri": null }
