{
            "URI": "https://web.archive.org/web/20101029173717/www.nr2.ru/society/306596.html",
            "title": "",
            "publishing_date": "28.10.2010",
            "event_date": "28.10.2010",
            "previous_subevent_uri": "https://ria.ru/hs_news/20100816/265750014.html",
            "topic": "Критический взгляд на действия властей",
"next_subevent_uri": null }
