{
            "URI": "https://ria.ru/society/20100722/257278233.html",
            "title": "На центр России надвигается почти 40-градусная жара - РИА Новости, 22.07.2010",
            "publishing_date": "22.07.2010",
            "event_date": "22.07.2010",
            "previous_subevent_uri": "https://ria.ru/eco/20100719/256364209.html",
            "topic": "Надвигается 40-градусная жара",
"next_subevent_uri": "https://lenta.ru/news/2010/07/24/warmest/" }
